[
    {
        "id": 1,
        "name": "Hà Nội"        
    },
    {
        "id": 2,
        "name": "Tp. Hồ Chí Minh"
    },
    {
        "id": 3,
        "name": "Hải Phòng"
    },
    {
        "id": 4,
        "name": "Đà Nẵng"
    },
    {
        "id": 5,
        "name": "Hà Giang"
    },
    {
        "id": 6,
        "name": "Cao Bằng"
    },
    {
        "id": 7,
        "name": "Lai Châu"
    },
    {
        "id": 8,
        "name": "Lào Cai"
    },
    {
        "id": 9,
        "name": "Tuyên Quang"
    },
    {
        "id": 10,
        "name": "Lạng Sơn"
    },
    {
        "id": 11,
        "name": "Bắc Kạn"
    },
    {
        "id": 12,
        "name": "Thái Nguyên"
    },
    {
        "id": 13,
        "name": "Yên Bái"
    },
    {
        "id": 14,
        "name": "Sơn La"
    },
    
    {
        "id": 15,
        "name": "Phú Thọ"
    },
    {
        "id": 16,
        "name": "Vĩnh Phúc"
    },
    {
        "id": 17,
        "name": "Quảng Ninh"
    },
    {
        "id": 18,
        "name": "Bắc Giang"
    },
    {
        "id": 19,
        "name": "Bắc Ninh"
    },
    {
        "id": 21,
        "name": "Hải Dương"
    },
    {
        "id": 22,
        "name": "Hưng Yên"
    },
    {
        "id": 23,
        "name": "Hoà Bình"
    },
    {
        "id": 24,
        "name": "Hà Nam"
    },
    {
        "id": 25,
        "name": "Nam Định"
    },
    {
        "id": 26,
        "name": "Thái Bình"
    },
    {
        "id": 27,
        "name": "Ninh Bình"
    },
    {
        "id": 28,
        "name": "Thanh Hoá"
    },
    {
        "id": 29,
        "name": "Nghệ An"
    },
    {
        "id": 30,
        "name": "Hà Tĩnh"
    },
    {
        "id": 31,
        "name": "Quảng Bình"
    },
    {
        "id": 32,
        "name": "Quảng Trị"
    },
    {
        "id": 33,
        "name": "Thừa Thiên Huế"
    },
    {
        "id": 34,
        "name": "Quảng Nam"
    },
    {
        "id": 35,
        "name": "Quảng Ngãi"
    },
    {
        "id": 36,
        "name": "Kon Tum"
    },
    {
        "id": 37,
        "name": "Bình Định"
    },
    {
        "id": 38,
        "name": "Gia Lai"
    },
    {
        "id": 39,
        "name": "Phú Yên"
    },
    {
        "id": 40,
        "name": "Đắk Lắk"
    },
    {
        "id": 41,
        "name": "Khánh Hoà"
    },
    {
        "id": 42,
        "name": "Lâm Đồng"
    },
    {
        "id": 43,
        "name": "Bình Phước"
    },
    {
        "id": 44,
        "name": "Bình Dương"
    },
    {
        "id": 45,
        "name": "Ninh Thuận"
    },
    {
        "id": 46,
        "name": "Tây Ninh"
    },
    {
        "id": 47,
        "name": "Bình Thuận"
    },
    {
        "id": 48,
        "name": "Đồng Nai"
    },
    {
        "id": 49,
        "name": "Long An"
    },
    {
        "id": 50,
        "name": "Đồng Tháp"
    },
    {
        "id": 51,
        "name": "An Giang"
    },
    {
        "id": 52,
        "name": "Bà Rịa -Vũng Tàu"
    },
    {
        "id": 53,
        "name": "Tiền Giang"
    },
    {
        "id": 54,
        "name": "Kiên Giang"
    },
    {
        "id": 55,
        "name": "Cần Thơ"
    },
    {
        "id": 56,
        "name": "Bến Tre"
    },
    {
        "id": 57,
        "name": "Vĩnh Long"
    },
    {
        "id": 58,
        "name": "Trà Vinh"
    },
    {
        "id": 59,
        "name": "Sóc Trăng"
    },
    {
        "id": 60,
        "name": "Bạc Liêu"
    },
    {
        "id": 61,
        "name": "Cà Mau"
    },
    {
        "id": 62,
        "name": "Điện Biên"
    },
    {
        "id": 63,
        "name": "Đắk Nông"
    },
    {
        "id": 64,
        "name": "Hậu Giang"
    }
]